{
  "locales": [
    "de-ch",
    "de-lu",
    "en",
    "fr-be",
    "fr",
    "it-ch",
    "nl-de",
    "pt-pt",
    "de-de",
    "en-gb",
    "es-es",
    "fr-ch",
    "fr-lu",
    "it-it",
    "nl-nl"
  ],
  "defaultLocale": "fr",
  "pages": {
    "*": ["common"]
  },
  "localeDetection": false
}
