<?xml version="1.0" encoding="utf-8"?>
<!-- Generator: Adobe Illustrator 24.2.3, SVG Export Plug-In . SVG Version: 6.00 Build 0)  -->
<svg version="1.1" id="Calque_1_-_copie_2" xmlns="http://www.w3.org/2000/svg" xmlns:xlink="http://www.w3.org/1999/xlink" x="0px"
	 y="0px" viewBox="0 0 1559.1 504.6" style="enable-background:new 0 0 1559.1 504.6;" xml:space="preserve">
<style type="text/css">
	.st0{fill:#FFFFFF;}
</style>
<g>
	<rect width="1559.1" height="504.6"/>
</g>
<g>
	<path className="st0" d="M165.3,65.8H99.4v178.6c0,47,28.6,88.8,87.6,88.8h98.8v-54.4h-88.1c-25.1,0-32.5-21.5-32.5-47.5V65.8z"/>
	<path className="st0" d="M496.2,65.8h-111c-45.5,0-104.3,31-104.3,144.9c0,50.7,27.1,122.4,103.3,122.4h112.1v-54.4h-93
		c-25.3,0-44.4-16-48.9-51.2h138.2v-51H354.7c4.1-33.5,21.7-56.4,51.3-56.4h90.2V65.8z"/>
	<path className="st0" d="M1458.8,65.8h-111c-45.5,0-104.3,31-104.3,144.9c0,50.7,27.1,122.4,103.3,122.4h112.1v-54.4h-93
		c-25.3,0-44.4-16-48.9-51.2h138.3v-51h-137.9c4.1-33.5,21.6-56.4,51.3-56.4h90.2V65.8z"/>
	<path className="st0" d="M882.1,65.8H827L719.1,333.1H788l21.7-54.4h90.7l21.7,54.4h73.8L882.1,65.8z M824.3,227.6l30.8-76.8l30.8,76.8
		H824.3z"/>
	<path className="st0" d="M534.2,333.1V65.8h147.3c38.1,0,81.7,20.5,81.7,89c0,66.3-43.3,89-80.8,89h-83.7v89.3H534.2z M598.8,188h68.6
		c17,0,34.7-6.2,34.7-34.6c0-25.4-17.7-33.6-36.1-33.6h-67.3V188z"/>
	<path className="st0" d="M1001.9,333.1V65.8h147.3c38.1,0,81.7,20.5,81.7,89c0,66.3-43.3,89-80.8,89h-83.7v89.3H1001.9z M1066.4,188
		h68.6c17,0,34.8-6.2,34.8-34.6c0-25.4-17.8-33.6-36.1-33.6h-67.3V188z"/>
</g>
</svg>
